<?xml version="1.0" encoding="utf-8"?>
<!-- Generator: Adobe Illustrator 19.0.0, SVG Export Plug-In . SVG Version: 6.00 Build 0)  -->
<svg version="1.1" id="Layer_1" xmlns="http://www.w3.org/2000/svg" xmlns:xlink="http://www.w3.org/1999/xlink" x="0px" y="0px"
	 viewBox="-283 705 512 512" style="enable-background:new -283 705 512 512;" xml:space="preserve">
<style type="text/css">
	.st0{fill:#FFFFFF;}
</style>
<g>
	<g>
		<path class="st0" d="M169.8,820C128.2,788.1,67,771.2-7.5,771.2c-66,0-131.9,13.4-180.8,36.7c-62,29.6-94.7,73.4-94.7,126.9
			c0,0.8,0,48.8,0,48.8c0,29,11,55.4,30.9,74.6c21.2,20.3,50.8,31.1,85.6,31.1c7.2,0,14.4-0.6,21.5-1.7c38-6.2,78.2,4.5,110.2,29.2
			c28.9,22.3,63.5,34.1,100.1,34.1c90.2,0,163.7-73.4,163.7-163.7c0,0,0-47.9,0-48.8C229,891.4,208,849.3,169.8,820z M65.3,1129.9
			c-31.9,0-62.1-10.3-87.3-29.8c-36.6-28.3-82.6-40.4-126.3-33.3c-6,1-12.1,1.5-18.1,1.5c-57.4,0-87.3-32.1-94.1-68.2
			c2.6,3.2,5.4,6.3,8.5,9.2c21.2,20.3,50.8,31.1,85.6,31.1c7.2,0,14.4-0.6,21.5-1.7c38-6.2,78.2,4.5,110.2,29.2
			c28.9,22.3,63.5,34.1,100.1,34.1c57.1,0,107.4-29.4,136.7-73.8C184.4,1087,129.8,1129.9,65.3,1129.9z M65.3,1081.1
			c-31.9,0-62.1-10.3-87.3-29.8c-29.7-23-65.7-35.3-101.6-35.3c-8.3,0-16.6,0.7-24.8,2c-6,1-12.1,1.5-18.1,1.5
			c-66.1,0-95.7-42.6-95.7-84.7c0-56.6,45-90,82.8-108c46.2-22,108.8-34.7,171.8-34.7c69.8,0,126.6,15.4,164.5,44.5
			c33.4,25.7,51.1,60.9,51.1,101.8C208.1,1017.1,144.1,1081.1,65.3,1081.1z"/>
	</g>
</g>
<g>
	<g>
		<path class="st0" d="M88.8,899.5c-20.1-15.3-51.6-15.3-71.8,0c-10.4,7.9-16.4,19.2-16.4,30.8s6,22.9,16.4,30.8
			c9.7,7.4,22.6,11.5,35.9,11.5c1.5,0,3.1-0.1,4.6-0.2c5.8-0.4,10.1-5.4,9.7-11.2c-0.4-5.8-5.4-10.1-11.2-9.7
			c-9.9,0.7-19.6-1.9-26.4-7.1c-5.2-4-8.1-9-8.1-14.2c0-5.2,2.9-10.2,8.1-14.2c12.6-9.6,33.9-9.6,46.4,0c5.2,4,8.1,9,8.1,14.1
			c0.1,5.7,4.7,10.3,10.4,10.3c0,0,0.1,0,0.1,0c5.8-0.1,10.4-4.8,10.3-10.5C105.1,918.3,99.2,907.4,88.8,899.5z"/>
	</g>
</g>
<g>
	<g>
		<path d="M90.8,946.5c-3.5-4.6-10.1-5.5-14.6-2l-0.1,0.1c-4.6,3.5-5.5,10.1-2,14.6c2.1,2.7,5.2,4.1,8.3,4.1c2.2,0,4.4-0.7,6.3-2.1
			l0.1-0.1C93.4,957.6,94.3,951.1,90.8,946.5z"/>
	</g>
</g>
<g>
	<g>
		<path class="st0" d="M-34.5,832.8c-0.4-5.8-5.5-10.1-11.2-9.6c-49.6,3.8-95.2,15.2-128.3,32.2c-41.9,21.5-64.1,51.8-64.1,87.6
			c0,5.8,4.7,10.4,10.4,10.4c5.8,0,10.4-4.7,10.4-10.4c0-63.3,93.2-92.8,173.1-98.9C-38.3,843.6-34,838.6-34.5,832.8z"/>
	</g>
</g>
<g>
	<g>
		<path class="st0" d="M-11.1,821.8c-5.8,0-10.4,4.7-10.4,10.4c0,5.8,4.7,10.4,10.4,10.4h0.1c5.8,0,10.4-4.7,10.4-10.4
			C-0.6,826.5-5.4,821.8-11.1,821.8z"/>
	</g>
</g>
</svg>
