<?xml version="1.0" encoding="iso-8859-1"?>
<!-- Generator: Adobe Illustrator 19.0.0, SVG Export Plug-In . SVG Version: 6.00 Build 0)  -->
<svg xmlns="http://www.w3.org/2000/svg" xmlns:xlink="http://www.w3.org/1999/xlink" version="1.1" id="Layer_1" x="0px" y="0px" viewBox="0 0 502 502" style="enable-background:new 0 0 502 502;" xml:space="preserve" width="512px" height="512px">
<g>
	<g>
		<g>
			<path d="M423.143,68.857h-12.952V33.471l16.399-16.399c3.905-3.905,3.905-10.237,0-14.143c-3.906-3.905-10.236-3.905-14.143,0     L393.12,22.257c-1.858,1.854-2.931,4.453-2.929,7.076v39.524h-9.328c-5.522,0-10,4.477-10,10v89.394c0,5.523,4.478,10,10,10     h42.28c5.522,0,10-4.477,10-10V78.857C433.143,73.334,428.665,68.857,423.143,68.857z M413.143,158.251h-22.28V88.857h22.28     V158.251z" fill="#FFFFFF"/>
			<path d="M401.399,240c-5.522,0-10,4.477-10,10v101.266c0,32.787-26.674,59.461-59.461,59.461h-13.557V221.74h16.576     c5.522,0,10-4.477,10-10V24.496c0-5.523-4.478-10-10-10h-256.1c-5.523,0-10,4.477-10,10V211.74c0,5.523,4.477,10,10,10h16.577     V492c0,5.523,4.477,10,10,10h202.947c5.522,0,10-4.477,10-10v-61.273h13.557c43.814,0,79.461-35.646,79.461-79.461V250     C411.399,244.477,406.921,240,401.399,240z M298.381,482H115.434V221.74h182.947V482z M88.857,201.74V34.496h236.1V201.74H88.857     z" fill="#FFFFFF"/>
			<path d="M401.399,192c-5.522,0-10,4.477-10,10v16c0,5.523,4.478,10,10,10c5.522,0,10-4.477,10-10v-16     C411.399,196.477,406.921,192,401.399,192z" fill="#FFFFFF"/>
			<path d="M294.682,55.569H119.134c-5.523,0-10,4.477-10,10v105.098c0,5.523,4.477,10,10,10h175.548c5.522,0,10-4.477,10-10V65.569     C304.682,60.046,300.204,55.569,294.682,55.569z M284.682,160.667H129.134V75.569h155.548V160.667z" fill="#FFFFFF"/>
			<path d="M206.908,430.727c29.997,0,54.402-24.405,54.402-54.402c0-12.155-7.719-31.103-23.596-57.926     c-11.179-18.886-22.18-34.469-22.643-35.123c-1.875-2.649-4.918-4.224-8.163-4.224s-6.289,1.575-8.163,4.224     c-0.463,0.654-11.464,16.237-22.643,35.123c-15.877,26.823-23.596,45.771-23.596,57.926     C152.506,406.323,176.911,430.727,206.908,430.727z M206.909,306.795c15.718,23.804,34.4,56.379,34.4,69.531     c0,18.969-15.433,34.402-34.402,34.402s-34.402-15.433-34.402-34.402C172.506,363.187,191.189,330.606,206.909,306.795z" fill="#FFFFFF"/>
			<path d="M167,129h78c5.523,0,10-4.477,10-10s-4.477-10-10-10h-78c-5.523,0-10,4.477-10,10S161.477,129,167,129z" fill="#FFFFFF"/>
		</g>
	</g>
</g>
<g>
</g>
<g>
</g>
<g>
</g>
<g>
</g>
<g>
</g>
<g>
</g>
<g>
</g>
<g>
</g>
<g>
</g>
<g>
</g>
<g>
</g>
<g>
</g>
<g>
</g>
<g>
</g>
<g>
</g>
</svg>
