<?xml version="1.0" encoding="utf-8"?>
<!-- Generator: Adobe Illustrator 19.0.0, SVG Export Plug-In . SVG Version: 6.00 Build 0)  -->
<svg version="1.1" id="Capa_1" xmlns="http://www.w3.org/2000/svg" xmlns:xlink="http://www.w3.org/1999/xlink" x="0px" y="0px"
	 viewBox="-509 931.8 59.2 59.2" style="enable-background:new -509 931.8 59.2 59.2;" xml:space="preserve">
<style type="text/css">
	.st0{fill:#FFFFFF;}
</style>
<g>
	<path class="st0" d="M-450.4,960.1c-0.4-0.5-1.1-0.8-1.7-0.8h-0.2c0.9-1.5,1.4-3.2,1.4-5c0-4-2.4-7.6-6-9.2
		c-0.1-5.4-4.5-9.8-10-9.8c-5.5,0-9.9,4.4-10,9.8c-0.2,0-0.4-0.1-0.6-0.1c-0.9,0-1.7,0.4-2.2,1.2l-0.2,0.4c-0.2,0.3-0.6,0.4-0.9,0.2
		l-0.4-0.2c-0.8-0.4-1.7-0.3-2.5,0.1c-0.8,0.4-1.3,1.2-1.4,2.1l0,0.4c0,0.2-0.1,0.4-0.2,0.6c-0.2-0.1-0.4-0.3-0.4-0.6l0-0.4
		c-0.1-0.8-0.5-1.5-1.2-2l3.1-4.5c0.6-0.9,0.9-1.9,0.7-3c-0.2-1.1-0.8-2-1.6-2.6c-1.8-1.3-4.3-0.8-5.6,1l-5.8,8.2
		c-0.2,0.3-0.3,0.6-0.5,0.9c-0.1,0-0.2,0-0.3-0.1l-0.4-0.2c-0.8-0.4-1.8-0.3-2.5,0.1c-0.8,0.4-1.3,1.2-1.4,2.1l0,0.4
		c0,0.4-0.3,0.6-0.7,0.7l-0.4,0c-0.9,0.1-1.7,0.6-2.1,1.4c-0.4,0.8-0.5,1.7-0.1,2.5l0.2,0.4c0.2,0.3,0,0.7-0.2,0.9l-0.4,0.2
		c-0.7,0.5-1.2,1.3-1.2,2.2c0,0.6,0.2,1.2,0.6,1.6h-0.9c-0.7,0-1.3,0.3-1.7,0.8c-0.5,0.5-0.7,1.1-0.6,1.8c0.6,8.7,6.2,13.1,14.3,17
		c0.9,0.4,1.7,1.2,2.1,2c0.4,0.9,0.4,2-0.2,2.9c-0.4,0.7-0.4,1.6,0,2.3c0.4,0.7,1.1,1.2,2,1.2h22.8c0.8,0,1.6-0.4,2-1.2
		c0.4-0.7,0.4-1.6,0-2.3c-0.6-0.9-0.6-2-0.2-2.9c0.5-0.9,1.2-1.6,2.1-2c8.2-3.9,13.7-8.3,14.3-17
		C-449.8,961.3-450,960.6-450.4,960.1z M-453,954.4c0,1.8-0.6,3.6-1.8,5h-5.2v-4c0-0.6-0.4-1-1-1s-1,0.4-1,1v4h-3.5
		c0.1-0.1,0.2-0.2,0.2-0.3c0,0,0,0,0,0c0.1-0.2,0.2-0.4,0.2-0.5c0,0,0-0.1,0-0.1c0-0.2,0.1-0.4,0.1-0.6c0-0.9-0.4-1.7-1.2-2.2
		l-0.2-0.2c0.1,0,0.2,0,0.2,0c0.1,0,0.2,0,0.4,0c0.2,0,0.4-0.1,0.6-0.1c0.1,0,0.2,0,0.3-0.1c0.2,0,0.4-0.1,0.6-0.2
		c0.1,0,0.2,0,0.3-0.1c0.3-0.1,0.6-0.2,0.8-0.3c0.1,0,0.1-0.1,0.2-0.1c0.2-0.1,0.4-0.2,0.6-0.3c0.1-0.1,0.2-0.1,0.3-0.2
		c0.2-0.1,0.3-0.2,0.5-0.3c0.1-0.1,0.2-0.1,0.3-0.2c0.1-0.1,0.3-0.2,0.4-0.3c0.1-0.1,0.2-0.2,0.3-0.3c0.1-0.1,0.2-0.2,0.4-0.3
		c0.1-0.1,0.2-0.2,0.3-0.3c0.1-0.1,0.2-0.2,0.3-0.4c0.2-0.2,0.4-0.5,0.6-0.7c0.1-0.1,0.1-0.2,0.2-0.3c0.1-0.2,0.2-0.3,0.3-0.5
		c0-0.1,0.1-0.2,0.1-0.2c0.1-0.2,0.2-0.4,0.3-0.5c0-0.1,0.1-0.1,0.1-0.2c0.1-0.2,0.2-0.4,0.3-0.6c0,0,0-0.1,0-0.1
		c0.2-0.5,0.3-1,0.4-1.5C-454.6,948.7-453,951.4-453,954.4z M-467,937.4c4.4,0,8,3.6,8,8c0,0.2,0,0.3,0,0.4c0,0,0,0,0,0
		c-0.1,1.1-0.3,2-0.7,2.9c0,0,0,0,0,0c-0.1,0.2-0.2,0.4-0.3,0.6c0,0,0,0,0,0.1c-0.1,0.2-0.2,0.4-0.3,0.5c0,0-0.1,0.1-0.1,0.1
		c-0.1,0.2-0.2,0.3-0.4,0.4c0,0-0.1,0.1-0.1,0.1c-0.1,0.1-0.2,0.3-0.4,0.4c-0.1,0.1-0.1,0.1-0.2,0.2c-0.1,0.1-0.2,0.2-0.4,0.3
		c-0.1,0.1-0.1,0.1-0.2,0.2c-0.1,0.1-0.2,0.2-0.4,0.3c-0.1,0.1-0.2,0.1-0.2,0.2c-0.1,0.1-0.3,0.2-0.4,0.2c-0.1,0-0.2,0.1-0.3,0.1
		c-0.1,0.1-0.3,0.1-0.4,0.2c-0.1,0-0.2,0.1-0.3,0.1c-0.1,0.1-0.3,0.1-0.4,0.1c-0.1,0-0.2,0.1-0.3,0.1c-0.1,0-0.3,0.1-0.4,0.1
		c-0.1,0-0.2,0.1-0.4,0.1c-0.1,0-0.3,0-0.4,0.1c-0.1,0-0.3,0-0.4,0c0,0-0.1,0-0.1,0v0c0,0,0,0,0,0c0-0.2,0-0.4,0-0.5
		c0-0.1,0-0.1,0-0.2c0-0.1,0-0.3-0.1-0.4c0-0.1,0-0.1,0-0.2c-0.1-0.2-0.1-0.4-0.2-0.5c-0.4-0.8-1.2-1.3-2.1-1.4l-0.4,0
		c-0.3,0-0.5-0.2-0.6-0.4l2.1-2.1c0.4-0.4,0.4-1,0-1.4s-1-0.4-1.4,0l-1.4,1.4c-0.2-0.3-0.5-0.5-0.8-0.7c-0.2-0.1-0.4-0.2-0.6-0.3
		c-0.1,0-0.1,0-0.2,0c-0.2,0-0.3-0.1-0.5-0.1c0,0,0,0-0.1,0c-0.1,0-0.2,0-0.3,0c-0.1,0-0.1,0-0.2,0c-0.2,0-0.4,0.1-0.6,0.2l-0.4,0.2
		c-0.1,0-0.2,0.1-0.3,0.1c0,0,0,0,0,0c-0.1,0-0.2,0-0.3-0.1c-0.1-0.5-0.1-1-0.1-1.5C-475,941-471.4,937.4-467,937.4z M-483.3,949.6
		l0-0.4c0-0.2,0.2-0.5,0.4-0.6c0.2-0.1,0.5-0.1,0.7,0l0.4,0.2c1.2,0.6,2.6,0.2,3.4-0.9l0.2-0.4c0.3-0.4,0.9-0.4,1.2,0l0.2,0.4
		c0.5,0.7,1.3,1.1,2.2,1.1c0,0,0,0,0,0c0.1,0,0.2,0,0.4,0c0.1,0,0.1,0,0.2,0c0.1,0,0.2,0,0.2,0c0.1,0,0.3-0.1,0.4-0.2l0.4-0.2
		c0.2-0.1,0.5-0.1,0.7,0c0.2,0.1,0.3,0.3,0.4,0.6l0,0.4c0.1,1.3,1.2,2.4,2.5,2.5l0.4,0c0.2,0,0.5,0.2,0.6,0.4c0.1,0.2,0.1,0.5,0,0.7
		l-0.2,0.4c0,0,0,0,0,0.1c-0.4,0.8-0.3,1.7,0.1,2.5c0,0,0,0,0,0c0.1,0.1,0.1,0.2,0.2,0.3c0,0,0.1,0.1,0.1,0.1c0,0.1,0.1,0.1,0.2,0.2
		c0.1,0.1,0.2,0.2,0.3,0.3l0.4,0.3c0.2,0.1,0.3,0.4,0.3,0.6c0,0.2-0.1,0.5-0.3,0.6l-0.4,0.2c0,0,0,0,0,0c-0.1,0.1-0.2,0.2-0.4,0.3
		c0,0-0.1,0.1-0.1,0.1c-0.1,0.1-0.1,0.1-0.2,0.2c0,0,0,0.1-0.1,0.1h-13.1c0.1-0.1,0.2-0.2,0.2-0.3c0,0,0,0,0,0
		c0.1-0.2,0.2-0.4,0.2-0.5c0,0,0-0.1,0-0.1c0-0.2,0.1-0.4,0.1-0.6v0l0,0l0,0c0-0.1,0-0.2,0-0.4c0-0.1,0-0.2,0-0.3
		c-0.1-0.3-0.2-0.6-0.4-0.8c-0.2-0.3-0.4-0.6-0.7-0.8l-0.4-0.2c-0.3-0.2-0.4-0.6-0.2-0.9l0.2-0.4c0.1-0.2,0.1-0.4,0.2-0.6
		c0-0.1,0-0.1,0-0.2c0-0.1,0-0.3,0-0.4c0-0.1,0-0.1,0-0.2c0-0.1,0-0.3-0.1-0.4c0-0.1,0-0.2-0.1-0.2c0-0.1,0-0.1-0.1-0.2
		c0,0,0-0.1-0.1-0.1c0-0.1,0-0.1-0.1-0.2c-0.1-0.1-0.1-0.2-0.2-0.2c-0.1-0.1-0.1-0.1-0.2-0.2c-0.1-0.1-0.3-0.2-0.4-0.4
		c0,0-0.1-0.1-0.1-0.1C-483.5,950.2-483.4,949.9-483.3,949.6z M-488.9,939.1c0.6-0.9,1.9-1.1,2.8-0.5c0.4,0.3,0.7,0.8,0.8,1.3
		c0.1,0.5,0,1.1-0.3,1.5l-3.9,5.5c0,0,0,0,0,0l-1.9,2.6c-0.3,0.4-0.8,0.7-1.3,0.8c-0.5,0.1-1.1,0-1.5-0.3c0,0,0,0,0,0
		c-0.1-0.1-0.3-0.2-0.4-0.4c0,0-0.1-0.1-0.1-0.1c-0.1-0.1-0.2-0.3-0.2-0.4c0,0,0,0,0,0c-0.1-0.2-0.1-0.3-0.1-0.5c0,0,0-0.1,0-0.1
		c0-0.2,0-0.3,0-0.5c0.1-0.3,0.2-0.5,0.3-0.7L-488.9,939.1z M-503.6,958.6l-0.4-0.2c-0.2-0.1-0.3-0.4-0.3-0.6c0-0.2,0.1-0.5,0.3-0.6
		l0.4-0.2c1.1-0.8,1.5-2.2,0.9-3.4l-0.2-0.4c-0.1-0.2-0.1-0.5,0-0.7c0.1-0.2,0.3-0.3,0.6-0.4l0.4,0c1.3-0.1,2.4-1.2,2.5-2.5l0-0.4
		c0-0.2,0.2-0.5,0.4-0.6c0.2-0.1,0.5-0.1,0.7,0l0.4,0.2c0.3,0.1,0.6,0.2,0.9,0.2c0,0,0,0,0,0.1c0,0,0,0,0,0.1c0,0.1,0.1,0.2,0.1,0.3
		c0,0.1,0.1,0.3,0.1,0.4c0.1,0.1,0.1,0.3,0.2,0.4c0,0.1,0.1,0.2,0.1,0.3c0.1,0.2,0.2,0.3,0.3,0.4c0.1,0.1,0.1,0.1,0.1,0.2
		c0.2,0.2,0.4,0.4,0.6,0.5c0.2,0.1,0.4,0.3,0.6,0.4c0.1,0,0.1,0.1,0.2,0.1c0.2,0.1,0.3,0.1,0.5,0.2c0.1,0,0.2,0,0.2,0.1
		c0.2,0,0.3,0.1,0.5,0.1c0.1,0,0.1,0,0.2,0c0,0,0,0,0,0c0.2,0,0.5,0,0.7-0.1c1.1-0.2,2-0.8,2.6-1.6l1.5-2.1c0.2,0.1,0.3,0.3,0.3,0.5
		l0,0.4c0.1,1.3,1.2,2.4,2.5,2.5l0.4,0c0.1,0,0.2,0,0.3,0.1c0,0,0.1,0,0.1,0.1c0.1,0,0.1,0.1,0.1,0.1c0,0,0.1,0.1,0.1,0.1
		c0,0.1,0.1,0.2,0.1,0.3c0,0,0,0,0,0c0,0.1,0,0.2-0.1,0.3l-0.2,0.4c-0.2,0.5-0.3,0.9-0.2,1.4c0,0,0,0,0,0c0,0.1,0,0.3,0.1,0.4
		c0.2,0.6,0.5,1.1,1.1,1.5l0.2,0.2l0.1,0.1c0.2,0.1,0.3,0.4,0.3,0.6c0,0.1,0,0.2-0.1,0.3c0,0,0,0-0.1,0.1c0,0.1-0.1,0.1-0.2,0.2l0,0
		l-0.3,0.2c-0.1,0.1-0.3,0.2-0.4,0.3c0,0-0.1,0.1-0.1,0.1c-0.1,0.1-0.1,0.2-0.2,0.3c0,0,0,0,0,0h-18.4
		C-503,959.1-503.3,958.8-503.6,958.6z M-465,977.2c-1.3,0.6-2.4,1.7-3,2.9c-0.8,1.5-0.7,3.3,0.3,4.9c0.1,0.1,0,0.2,0,0.3
		c0,0.1-0.1,0.1-0.2,0.1h-22.8c-0.1,0-0.2-0.1-0.2-0.1c0-0.1-0.1-0.2,0-0.3c0.9-1.5,1-3.4,0.2-4.9c-0.7-1.3-1.7-2.3-3-2.9
		c-7.8-3.7-12.7-7.6-13.2-15.4c0-0.1,0.1-0.2,0.1-0.3c0.1-0.1,0.1-0.1,0.3-0.1h3.1h19.7h16h0.1h13.4h2.1c0.1,0,0.2,0.1,0.3,0.1
		c0,0,0.1,0.1,0.1,0.3C-452.3,969.6-457.2,973.5-465,977.2z"/>
	<path class="st0" d="M-472,978.4h-8.7c-0.6,0-1,0.4-1,1c0,0.6,0.4,1,1,1h8.7c0.6,0,1-0.4,1-1C-471,978.8-471.4,978.4-472,978.4z"/>
	<path class="st0" d="M-487,980.4h3.4c0.6,0,1-0.4,1-1c0-0.6-0.4-1-1-1h-3.4c-0.6,0-1,0.4-1,1C-488,979.9-487.6,980.4-487,980.4z"/>
	<path class="st0" d="M-472,981.4h-15c-0.6,0-1,0.4-1,1c0,0.6,0.4,1,1,1h15c0.6,0,1-0.4,1-1C-471,981.8-471.4,981.4-472,981.4z"/>
	<path class="st0" d="M-469.1,944.7c0.2,0.2,0.5,0.3,0.7,0.3c0.3,0,0.5-0.1,0.7-0.3c0.4-0.4,0.4-1,0-1.4l-2.8-2.8
		c-0.4-0.4-1-0.4-1.4,0c-0.4,0.4-0.4,1,0,1.4L-469.1,944.7z"/>
	<path class="st0" d="M-463.5,950.3c0.2,0.2,0.5,0.3,0.7,0.3c0.3,0,0.5-0.1,0.7-0.3c0.4-0.4,0.4-1,0-1.4l-2.8-2.8
		c-0.4-0.4-1-0.4-1.4,0c-0.4,0.4-0.4,1,0,1.4L-463.5,950.3z"/>
	<path class="st0" d="M-465.6,945c0.3,0,0.5-0.1,0.7-0.3l2.8-2.8c0.4-0.4,0.4-1,0-1.4c-0.4-0.4-1-0.4-1.4,0l-2.8,2.8
		c-0.4,0.4-0.4,1,0,1.4C-466.1,944.9-465.8,945-465.6,945z"/>
	<path class="st0" d="M-460,953.4c0,0.6,0.4,1,1,1h4c0.6,0,1-0.4,1-1c0-0.6-0.4-1-1-1h-4C-459.6,952.4-460,952.8-460,953.4z"/>
	<path class="st0" d="M-478.5,953.9c0.3,0,0.5-0.1,0.7-0.3l1.5-1.5c0.4-0.4,0.4-1,0-1.4s-1-0.4-1.4,0l-1.5,1.5c-0.4,0.4-0.4,1,0,1.4
		C-479,953.8-478.8,953.9-478.5,953.9z"/>
	<path class="st0" d="M-473.7,956.1c0.2,0.2,0.5,0.3,0.7,0.3s0.5-0.1,0.7-0.3c0.4-0.4,0.4-1,0-1.4l-1-1c-0.4-0.4-1-0.4-1.4,0
		s-0.4,1,0,1.4L-473.7,956.1z"/>
	<path class="st0" d="M-477.7,955.7l-1,1c-0.4,0.4-0.4,1,0,1.4c0.2,0.2,0.5,0.3,0.7,0.3s0.5-0.1,0.7-0.3l1-1c0.4-0.4,0.4-1,0-1.4
		S-477.3,955.3-477.7,955.7z"/>
</g>
</svg>
