<?xml version="1.0" encoding="iso-8859-1"?>
<!-- Generator: Adobe Illustrator 19.0.0, SVG Export Plug-In . SVG Version: 6.00 Build 0)  -->
<svg version="1.1" id="Layer_1" xmlns="http://www.w3.org/2000/svg" xmlns:xlink="http://www.w3.org/1999/xlink" x="0px" y="0px"
	 viewBox="0 0 512.001 512.001" style="enable-background:new 0 0 512.001 512.001;" xml:space="preserve">
<g>
	<g>
		<rect x="344.512" y="188.667" width="21.874" height="16.406"/>
	</g>
</g>
<g>
	<g>
		<path d="M294.968,420.752c-21.068,21.068-47.45,27.579-61.317,29.588c2.438-11.171,9.388-31.019,29.169-50.799l-11.6-11.601
			c-34.807,34.807-35.284,69.997-35.287,71.479l-0.019,8.235l8.235-0.014c1.928-0.003,47.612-0.479,82.42-35.287L294.968,420.752z"
			/>
	</g>
</g>
<g>
	<g>
		<path d="M494.904,57.42V0h-16.406v57.42h-13.672v16.406h13.672v35.546c0,7.539-6.133,13.672-13.672,13.672
			c-7.539,0-13.672-6.132-13.672-13.672h-16.406c0,16.584,13.492,30.077,30.077,30.077s30.077-13.493,30.077-30.077V73.826h13.672
			V57.42H494.904z"/>
	</g>
</g>
<g>
	<g>
		<path d="M344.517,68.358c-16.585,0-30.077,13.493-30.077,30.077c0,16.584,13.492,30.077,30.077,30.077
			s30.077-13.493,30.077-30.077C374.594,81.851,361.102,68.358,344.517,68.358z M344.517,112.107
			c-7.539,0-13.672-6.133-13.672-13.672c0-7.539,6.133-13.672,13.672-13.672s13.672,6.133,13.672,13.672
			C358.188,105.974,352.056,112.107,344.517,112.107z"/>
	</g>
</g>
<g>
	<g>
		<path d="M229.676,13.672c-31.662,0-57.42,25.759-57.42,57.42s25.758,57.42,57.42,57.42s57.42-25.759,57.42-57.42
			S261.338,13.672,229.676,13.672z M229.676,112.107c-22.616,0-41.015-18.399-41.015-41.015c0-22.616,18.399-41.015,41.015-41.015
			c22.616,0,41.015,18.399,41.015,41.015C270.69,93.708,252.292,112.107,229.676,112.107z"/>
	</g>
</g>
<g>
	<g>
		<path d="M453.938,241.142c-2.02-49.123-12.874-86.405-14.001-90.16c-0.037-0.122-0.063-0.21-0.079-0.26l-1.458-4.765l-4.902-0.901
			c-1.358-0.25-33.754-6.058-77.461-0.92c-1.743,0.205-3.529,0.438-5.336,0.684c-40.164,5.48-95.318,21.614-140.196,66.492
			c-0.169,0.17-0.332,0.342-0.502,0.513l-1.793,1.797l-0.008,0.044c-34.497,35.544-52.552,78.002-68.514,115.562
			c-4.827,11.356-9.448,22.229-14.246,32.235c-2.7-2.255-5.287-4.619-7.744-7.075c-23.955-23.955-36.397-57.081-34.16-90.931
			c9.064-64.79,45.406-102.055,45.761-102.414l14.002-14.003h-19.803c-37.009,0-52.517,14.296-60.923,24.72
			c-4.037-12.538-2.024-31.113-0.638-38.111l5.313-26.567l-19.158,19.158C21.87,152.465,8.57,186.309,9.633,224.111
			c0.598,21.251,5.542,38.09,8.131,45.548c-31.149,51.851-4.599,135.825,14.268,161.183c38.792,52.141,93.758,80.197,158.955,81.136
			c1.073,0.015,2.141,0.023,3.217,0.023c78.459,0,163.477-41.01,213.072-102.872l0.042-0.009l0.703-0.904
			c0.109-0.137,0.224-0.27,0.332-0.408C440.962,366.511,456.726,308.879,453.938,241.142z M43.274,418.263
			c-7.664-11.866-17.051-35.274-21.322-62.689c-5.141-33-0.977-61.544,11.725-80.371l2.486-3.685l-1.729-4.094
			c-0.274-0.65-23.849-58.16,9.358-109.923c0.511,12.223,3.35,25.788,12.039,34.476l5.8,5.8l5.801-5.801
			c1.741-1.741,3.291-3.82,4.932-6.022c5.601-7.515,12.838-17.226,32.628-20.957c-12.768,17.858-31.396,50.667-37.742,96.49
			l-0.058,0.567c-2.647,38.676,11.534,76.558,38.908,103.932c3.646,3.648,7.562,7.096,11.662,10.339
			C101.618,404.907,81.806,422.542,43.274,418.263z M191.223,495.572c-38.276-0.55-91.221-11.87-134.449-60.313
			c38.869-0.946,59.749-23.907,74.339-49.223l0.143,0.102l3.696-7.069c0.219-0.413,0.442-0.827,0.658-1.241l-0.008-0.003
			c6.726-12.868,12.778-27.106,19.185-42.182c12.856-30.251,27.118-63.799,50.327-93.478c-0.031,1.308-0.048,2.616-0.048,3.924
			c0,91.97,74.823,166.793,166.793,166.793c3.575,0,7.154-0.127,10.727-0.355C334.317,463.746,259.848,496.593,191.223,495.572z
			 M432.915,311.186c-0.004,0.045-0.012,0.086-0.02,0.127c-0.303,1.602-0.623,3.207-0.959,4.813
			c-0.018,0.082-0.034,0.163-0.051,0.245c-0.33,1.571-0.678,3.143-1.041,4.717c-0.027,0.118-0.055,0.236-0.082,0.354
			c-0.358,1.54-0.733,3.081-1.124,4.623c-0.038,0.152-0.078,0.305-0.116,0.457c-0.387,1.512-0.79,3.024-1.21,4.536
			c-0.05,0.18-0.099,0.36-0.151,0.539c-0.417,1.486-0.849,2.972-1.298,4.456c-0.062,0.206-0.125,0.41-0.188,0.616
			c-0.446,1.461-0.91,2.92-1.389,4.378c-0.074,0.226-0.15,0.453-0.225,0.679c-0.479,1.44-0.973,2.878-1.485,4.313
			c-0.085,0.24-0.173,0.479-0.259,0.718c-0.513,1.422-1.042,2.841-1.589,4.258c-0.096,0.249-0.195,0.498-0.292,0.747
			c-0.549,1.405-1.113,2.809-1.697,4.206c-0.107,0.256-0.217,0.512-0.324,0.767c-0.587,1.391-1.19,2.78-1.812,4.163
			c-0.115,0.256-0.233,0.51-0.349,0.766c-0.629,1.381-1.273,2.758-1.938,4.13c-0.121,0.25-0.247,0.501-0.37,0.751
			c-0.674,1.374-1.363,2.743-2.074,4.106c-0.125,0.24-0.254,0.478-0.38,0.716c-0.723,1.37-1.461,2.737-2.224,4.094
			c-0.126,0.223-0.255,0.445-0.381,0.668c-0.777,1.37-1.571,2.735-2.388,4.092c-0.12,0.199-0.244,0.396-0.365,0.595
			c-0.838,1.377-1.693,2.747-2.575,4.108c-0.107,0.165-0.218,0.329-0.326,0.493c-0.908,1.39-1.834,2.774-2.788,4.144
			c-0.086,0.124-0.175,0.246-0.261,0.37c-0.985,1.409-1.993,2.808-3.029,4.194c-0.014,0.019-0.028,0.037-0.043,0.056
			c-8.647,1.521-17.464,2.292-26.253,2.292c-82.924,0-150.387-67.464-150.387-150.387c0-8.202,0.668-16.428,1.988-24.493
			c0.468-0.46,0.938-0.917,1.41-1.37c0.669-0.644,1.339-1.288,2.012-1.919c0.697-0.653,1.399-1.291,2.1-1.929
			c0.682-0.62,1.364-1.242,2.05-1.849c0.701-0.621,1.408-1.227,2.113-1.835c0.696-0.598,1.39-1.198,2.089-1.783
			c0.706-0.591,1.415-1.168,2.125-1.746c0.707-0.575,1.413-1.153,2.123-1.715c0.709-0.561,1.422-1.109,2.134-1.658
			c0.717-0.553,1.435-1.108,2.156-1.648c0.711-0.533,1.424-1.051,2.138-1.572c0.729-0.531,1.458-1.066,2.19-1.585
			c0.71-0.504,1.424-0.994,2.136-1.486c0.74-0.512,1.48-1.025,2.224-1.524c0.709-0.476,1.421-0.938,2.132-1.403
			c0.75-0.49,1.501-0.984,2.253-1.462c0.71-0.451,1.421-0.888,2.132-1.328c0.758-0.469,1.516-0.941,2.275-1.398
			c0.705-0.424,1.413-0.834,2.12-1.248c0.769-0.45,1.537-0.903,2.307-1.341c0.703-0.4,1.408-0.786,2.112-1.177
			c0.773-0.429,1.547-0.86,2.321-1.276c0.701-0.377,1.404-0.742,2.105-1.109c0.78-0.409,1.56-0.82,2.339-1.217
			c0.697-0.354,1.393-0.695,2.09-1.04c0.785-0.389,1.572-0.782,2.357-1.159c0.691-0.332,1.382-0.651,2.074-0.974
			c0.79-0.37,1.579-0.743,2.369-1.1c0.689-0.313,1.378-0.612,2.066-0.917c0.79-0.349,1.579-0.701,2.367-1.039
			c0.688-0.294,1.374-0.575,2.061-0.862c0.787-0.328,1.575-0.661,2.361-0.978c0.685-0.277,1.367-0.54,2.051-0.808
			c0.785-0.308,1.571-0.621,2.354-0.919c0.686-0.261,1.369-0.509,2.053-0.761c0.777-0.287,1.554-0.579,2.327-0.855
			c0.687-0.246,1.369-0.478,2.054-0.716c0.768-0.267,1.537-0.538,2.301-0.795c0.69-0.232,1.376-0.452,2.064-0.676
			c0.752-0.245,1.506-0.495,2.256-0.733c0.696-0.22,1.387-0.427,2.079-0.639c0.737-0.225,1.475-0.456,2.208-0.673
			c0.702-0.208,1.399-0.403,2.098-0.603c0.715-0.205,1.433-0.414,2.144-0.611c0.716-0.198,1.426-0.384,2.139-0.574
			c0.687-0.184,1.376-0.373,2.057-0.549c0.733-0.189,1.457-0.365,2.184-0.547c0.654-0.163,1.313-0.331,1.962-0.488
			c0.771-0.186,1.533-0.359,2.298-0.535c0.595-0.138,1.193-0.281,1.784-0.413c0.829-0.186,1.648-0.358,2.47-0.534
			c0.518-0.11,1.042-0.227,1.557-0.335c0.889-0.184,1.767-0.355,2.647-0.528c0.437-0.086,0.882-0.178,1.317-0.261
			c0.988-0.189,1.963-0.365,2.937-0.54c0.316-0.057,0.639-0.119,0.954-0.175c1.154-0.203,2.296-0.394,3.43-0.579
			c0.128-0.021,0.259-0.045,0.387-0.065c3.802-0.612,7.481-1.123,11.018-1.545c31.368-3.747,57.008-1.442,67.711-0.084
			c0.13,0.016,0.268,0.034,0.394,0.049c1.76,6.683,4.904,19.767,7.574,36.87l-30.006,50.009l14.067,8.44l19.187-31.978
			c0.512,5.75,0.919,11.729,1.174,17.89C438.372,261.991,437.622,286.235,432.915,311.186z"/>
	</g>
</g>
<g>
</g>
<g>
</g>
<g>
</g>
<g>
</g>
<g>
</g>
<g>
</g>
<g>
</g>
<g>
</g>
<g>
</g>
<g>
</g>
<g>
</g>
<g>
</g>
<g>
</g>
<g>
</g>
<g>
</g>
</svg>
