<?xml version="1.0" encoding="iso-8859-1"?>
<!-- Generator: Adobe Illustrator 19.0.0, SVG Export Plug-In . SVG Version: 6.00 Build 0)  -->
<svg version="1.1" id="Layer_1" xmlns="http://www.w3.org/2000/svg" xmlns:xlink="http://www.w3.org/1999/xlink" x="0px" y="0px"
	 viewBox="0 0 512 512" style="enable-background:new 0 0 512 512;" xml:space="preserve">
<g>
	<g>
		<path d="M380.741,182.148c-5.282-2.327-11.449,0.067-13.776,5.348c-2.327,5.282,0.067,11.449,5.348,13.776
			c0.018,0.007,0.08,0.036,0.11,0.048c1.36,0.596,2.775,0.878,4.167,0.878c4.007,0,7.819-2.339,9.544-6.255
			C388.462,190.661,386.022,184.475,380.741,182.148z"/>
	</g>
</g>
<g>
	<g>
		<path d="M471.819,320.578c-0.013-14.07-1.985-28.154-5.945-41.805c-9.607-33.115-30.384-62.161-58.503-81.787
			c-4.733-3.304-11.246-2.144-14.549,2.588c-3.303,4.732-2.144,11.246,2.588,14.549c3.392,2.368,6.635,4.881,9.737,7.52
			l-73.915,73.914V191c4.442,0.372,8.904,0.966,13.372,1.802c5.673,1.066,11.131-2.676,12.193-8.348
			c1.062-5.673-2.676-11.131-8.348-12.193c-33.124-6.199-67.897-0.945-97.909,14.797c-13.41,7.034-25.624,16.056-36.264,26.649
			c-0.098,0.091-0.203,0.173-0.299,0.27c-0.124,0.124-0.232,0.257-0.349,0.386c-13.231,13.333-23.988,29.11-31.513,46.533
			c-8.4,19.451-12.367,39.718-12.367,59.671c-0.001,0.072-0.01,0.142-0.01,0.215c0,0.09,0.011,0.177,0.014,0.265
			c0.126,39.788,16.048,78.287,44.22,106.531c0.002,0.002,0.004,0.005,0.007,0.007c0.001,0.001,0.003,0.003,0.005,0.004
			c13.108,13.14,28.864,24.062,46.915,31.857c19.456,8.402,39.718,12.378,59.675,12.377c39.87-0.003,78.479-15.891,106.821-44.062
			c0.064-0.061,0.133-0.114,0.195-0.177c0.034-0.034,0.063-0.072,0.097-0.108c13.097-13.089,23.989-28.807,31.765-46.813
			c8.168-18.914,12.314-39.228,12.363-59.585c0.002-0.097,0.015-0.195,0.015-0.297C471.83,320.715,471.821,320.648,471.819,320.578z
			 M201.302,269.183c5.253-12.162,12.129-23.159,20.286-32.818l73.969,73.969h-104.51C192.149,296.5,195.5,282.617,201.302,269.183z
			 M191.083,331.233h104.474l-73.878,73.878C204.033,384.306,193.314,358.371,191.083,331.233z M310.335,450.52
			c-13.834-1.102-27.718-4.453-41.151-10.255c-12.177-5.259-23.139-12.172-32.747-20.357l73.898-73.898V450.52z M310.335,295.558
			l-74.017-74.017c20.648-17.674,46.488-28.502,74.017-30.615V295.558z M419.914,236.43c17.743,20.925,28.299,46.918,30.513,73.905
			H346.01L419.914,236.43z M331.233,450.485V346.011l73.878,73.878C384.306,437.534,358.371,448.253,331.233,450.485z
			 M440.266,372.384c-5.259,12.177-12.172,23.139-20.357,32.747l-73.898-73.898h104.458
			C449.374,345.145,446.026,359.044,440.266,372.384z"/>
	</g>
</g>
<g>
	<g>
		<path d="M135.315,406.723c-33.388-21.648-57.417-56.229-65.927-94.877c-1.241-5.636-6.817-9.196-12.452-7.958
			c-5.636,1.241-9.199,6.816-7.958,12.452c9.682,43.969,37.005,83.303,74.966,107.917c1.756,1.138,3.726,1.682,5.675,1.682
			c3.422,0,6.776-1.679,8.778-4.765C141.538,416.333,140.157,409.862,135.315,406.723z"/>
	</g>
</g>
<g>
	<g>
		<path d="M55.38,268.573c-5.771,0-10.449,4.725-10.449,10.496s4.678,10.449,10.449,10.449c5.771,0,10.449-4.678,10.449-10.448
			v-0.095C65.829,273.204,61.151,268.573,55.38,268.573z"/>
	</g>
</g>
<g>
	<g>
		<path d="M402.33,147.853c-19.983-27.344-46.245-50.087-76.143-65.852c-22.979-12.116-48.126-20.07-73.959-23.547
			c4.624-21.391,25.014-37.557,49.4-37.557c5.771,0,10.449-4.678,10.449-10.449C312.077,4.678,307.399,0,301.628,0
			c-35.347,0-64.751,24.553-70.32,56.632c-2.92-0.116-5.844-0.195-8.77-0.195C99.83,56.437,0,156.267,0,278.974
			s99.83,222.537,222.537,222.537c10.053,0,20.186-0.694,30.167-2.047c21.161,8.09,44.109,12.536,68.079,12.536
			C426.221,512,512,426.221,512,320.784C512,244.499,467.092,178.516,402.33,147.853z M20.898,278.974
			c0-111.184,90.455-201.639,201.639-201.639c52.723,0,103.044,20.8,140.362,56.916c-13.555-3.058-27.649-4.683-42.116-4.683
			c-105.438,0-191.216,85.779-191.216,191.216c0,66.671,34.305,125.469,86.182,159.703
			C107.697,476.893,20.898,387.886,20.898,278.974z M320.784,491.102c-93.913,0-170.318-76.405-170.318-170.318
			s76.405-170.318,170.318-170.318s170.318,76.405,170.318,170.318S414.697,491.102,320.784,491.102z"/>
	</g>
</g>
<g>
	<g>
		<path d="M86.149,187.352c-5.282-2.328-11.449,0.068-13.776,5.348c-2.327,5.282,0.067,11.449,5.348,13.776
			c0.018,0.007,0.077,0.032,0.108,0.046c1.36,0.598,2.776,0.88,4.169,0.88c4.007,0,7.819-2.34,9.544-6.255
			C93.869,195.866,91.43,189.679,86.149,187.352z"/>
	</g>
</g>
<g>
	<g>
		<path d="M131.968,209.166c-0.023-0.01-0.091-0.04-0.114-0.049c-5.301-2.247-11.396,0.227-13.66,5.519s0.2,11.428,5.484,13.712
			c0.023,0.01,0.091,0.04,0.114,0.049c1.328,0.562,2.706,0.829,4.062,0.829c4.053,0,7.903-2.382,9.598-6.348
			C139.716,217.585,137.253,211.45,131.968,209.166z"/>
	</g>
</g>
<g>
	<g>
		<path d="M136.543,152.737c-0.023-0.01-0.091-0.04-0.114-0.049c-5.301-2.248-11.396,0.228-13.66,5.519
			c-2.264,5.292,0.2,11.428,5.484,13.712c0.023,0.01,0.091,0.04,0.114,0.049c1.328,0.562,2.706,0.829,4.062,0.829
			c4.053,0,7.903-2.383,9.598-6.348C144.291,161.157,141.827,155.021,136.543,152.737z"/>
	</g>
</g>
<g>
</g>
<g>
</g>
<g>
</g>
<g>
</g>
<g>
</g>
<g>
</g>
<g>
</g>
<g>
</g>
<g>
</g>
<g>
</g>
<g>
</g>
<g>
</g>
<g>
</g>
<g>
</g>
<g>
</g>
</svg>
