<?xml version="1.0" encoding="iso-8859-1"?>
<!-- Generator: Adobe Illustrator 19.0.0, SVG Export Plug-In . SVG Version: 6.00 Build 0)  -->
<svg version="1.1" id="Layer_1" xmlns="http://www.w3.org/2000/svg" xmlns:xlink="http://www.w3.org/1999/xlink" x="0px" y="0px"
	 viewBox="0 0 512 512" style="enable-background:new 0 0 512 512;" xml:space="preserve">
<g>
	<g>
		<path d="M383.533,373.717c-1.169-3.973-5.34-6.246-9.31-5.077c-3.973,1.17-6.246,5.34-5.077,9.313
			c8.339,28.336,2.973,58.154-14.72,81.809C336.724,483.427,309.618,497,280.059,497H231.94c-29.559,0-56.665-13.573-74.367-37.239
			c-17.693-23.654-23.059-53.473-14.72-81.808l29.224-99.289c1.17-3.974-1.103-8.144-5.076-9.313
			c-3.976-1.176-8.142,1.103-9.311,5.076l-29.224,99.289c-9.687,32.916-3.456,67.552,17.098,95.029
			C166.126,496.234,197.609,512,231.94,512h48.119c34.332,0,65.815-15.766,86.376-43.254
			C386.988,441.268,393.22,406.633,383.533,373.717z"/>
	</g>
</g>
<g>
	<g>
		<path d="M363.461,379.621l-41.312-140.359c-0.938-3.19-3.868-5.382-7.193-5.382H197.045c-3.326,0-6.255,2.191-7.193,5.382
			l-41.31,140.359c-7.809,26.525-2.788,54.439,13.774,76.583c16.571,22.159,41.947,34.868,69.621,34.868h48.129
			c27.674,0,53.05-12.709,69.621-34.868C366.249,434.06,371.27,406.146,363.461,379.621z M337.675,447.22
			c-13.712,18.336-34.71,28.853-57.611,28.853h-48.129c-22.9,0-43.899-10.517-57.611-28.853
			c-13.702-18.321-17.857-41.416-11.397-63.362l39.726-134.978h106.691l39.726,134.978
			C355.533,405.804,351.377,428.899,337.675,447.22z"/>
	</g>
</g>
<g>
	<g>
		<path d="M371.916,334.24L335.97,212.113c-4.601-15.63-6.934-31.825-6.934-48.137v-9.287h3.376c6.909,0,12.531-5.31,12.531-11.836
			V99.781c0-6.34-4.041-12.121-10.294-14.729l-30.503-12.719c-2.604-1.085-5.496-1.659-8.363-1.659h-7.22V7.5
			c0-2.679-1.428-5.153-3.747-6.493c-2.319-1.341-5.177-1.342-7.496-0.005L227.193,29.89c-2.324,1.339-3.755,3.816-3.755,6.498
			v34.286h-7.22c-2.867,0-5.759,0.574-8.363,1.659l-30.503,12.719c-6.253,2.607-10.294,8.389-10.294,14.729v43.072
			c0,6.526,5.621,11.836,12.531,11.836h3.376v9.287c0,16.312-2.333,32.507-6.934,48.137l-7.991,27.149
			c-1.17,3.974,1.102,8.144,5.075,9.313c0.707,0.209,1.42,0.308,2.121,0.308c3.241,0,6.23-2.117,7.19-5.384l7.991-27.149
			c5.006-17.006,7.545-34.627,7.545-52.373v-9.287h66.405c4.142,0,7.499-3.357,7.499-7.5s-3.357-7.5-7.499-7.5h-82.312V99.781
			c0.01-0.101,0.288-0.559,1.066-0.883l30.503-12.719c0.792-0.33,1.688-0.505,2.593-0.505c0.027,0.001,79.539,0.001,79.565,0.001
			c0.904,0,1.801,0.175,2.593,0.505l30.503,12.719c0.778,0.324,1.057,0.782,1.066,0.883v39.908h-21.117
			c-4.142,0-7.499,3.357-7.499,7.5s3.357,7.5,7.499,7.5h5.21v9.287c0,17.746,2.539,35.367,7.545,52.373l35.946,122.127
			c0.961,3.267,3.95,5.384,7.191,5.384c0.701,0,1.414-0.1,2.121-0.308C370.814,342.384,373.085,338.214,371.916,334.24z
			 M273.564,70.674h-35.128V40.722l35.128-20.245V70.674z"/>
	</g>
</g>
<g>
</g>
<g>
</g>
<g>
</g>
<g>
</g>
<g>
</g>
<g>
</g>
<g>
</g>
<g>
</g>
<g>
</g>
<g>
</g>
<g>
</g>
<g>
</g>
<g>
</g>
<g>
</g>
<g>
</g>
</svg>
